{
  "$schema": "./node_modules/@angular/service-worker/config/schema.json",
  "index": "/index.html",
  "assetGroups": [
    {
      "name": "app",
      "installMode": "prefetch",
      "resources": {
        "files": [
          "/favicon.ico",
          "/index.html",
          "/manifest.webmanifest",
          "/*.css",
          "/*.js"
        ]
      }
    },
    {
      "name": "assets",
      "installMode": "lazy",
      "updateMode": "prefetch",
      "resources": {
        "files": [
          "/assets/**",
          "/*.(eot|svg|cur|jpg|png|webp|gif|otf|ttf|woff|woff2|ani)"
        ]
      }
    },
    {
      "name": "googlemaps",
      "installMode": "prefetch",
      "updateMode": "prefetch",
      "resources": {
        "urls": [
          "https://fonts.googleapis.com/css?family=Roboto:300,400,500&amp;display=swap",
          "https://fonts.googleapis.com/icon?family=Material+Icons"
        ]
      }
    }
  ],
  "dataGroups": [{
    "name": "from-api",
    "urls": [
      "https://maps.googleapis.com/maps/**"
    ],
    "cacheConfig": {
      "maxSize": 100,
      "maxAge": "1d"
    }
  }]
}
